homework4
…
## # A tibble: 6 x 6
## # Groups:   Chick [1]
##   weight  Time Chick Diet  NumMeasures weightgain
##    <dbl> <dbl> <ord> <fct>       <int>      <dbl>
## 1     42     0 1     1              12          0
## 2     51     2 1     1              12          9
## 3     59     4 1     1              12         17
## 4     64     6 1     1              12         22
## 5     76     8 1     1              12         34
## 6     93    10 1     1              12         51

weightgain

## # A tibble: 540 x 6
## # Groups:   Chick [45]
##    weight  Time Chick Diet  NumMeasures weightgain
##     <dbl> <dbl> <ord> <fct>       <int>      <dbl>
##  1     42     0 1     1              12         NA
##  2     51     2 1     1              12          9
##  3     59     4 1     1              12          8
##  4     64     6 1     1              12          5
##  5     76     8 1     1              12         12
##  6     93    10 1     1              12         17
##  7    106    12 1     1              12         13
##  8    125    14 1     1              12         19
##  9    149    16 1     1              12         24
## 10    171    18 1     1              12         22
## #  with 530 more rows
…
## we are found that the purpe one the different to others because it has short line below the box. the red one has long line above the box.the red, green and purpe midian line in the weightGain are low whan 200.

#5. Answer each of the following questions using numerical and graphical summary. Also explain what you found: #(a) Which chick gained the most weight and which gained the least weight? #(b) What diets were they on?

complete[order(-complete$weightgain),]

## # A tibble: 540 x 6
## # Groups:   Chick [45]
##    weight  Time Chick Diet  NumMeasures weightgain
##     <dbl> <dbl> <ord> <fct>       <int>      <dbl>
##  1    373    21 35    3              12        332
##  2    361    20 35    3              12        320
##  3    341    21 34    3              12        300
##  4    331    21 21    2              12        291
##  5    332    18 35    3              12        291
##  6    327    20 34    3              12        286
##  7    322    21 48    4              12        283
##  8    321    21 40    3              12        280
##  9    318    20 21    2              12        278
## 10    309    21 29    2              12        270
## #  with 530 more rows

complete %>%
  filter(Time == 21) %>%
  arrange(weightgain)

## # A tibble: 45 x 6
## # Groups:   Chick [45]
##    weight  Time Chick Diet  NumMeasures weightgain
##     <dbl> <dbl> <ord> <fct>       <int>      <dbl>
##  1     74    21 24    2              12         32
##  2     96    21 13    1              12         55
##  3     98    21 9     1              12         56
##  4    117    21 20    1              12         76
##  5    124    21 10    1              12         83
##  6    142    21 17    1              12        100
##  7    150    21 30    2              12        108
##  8    147    21 33    3              12        108
##  9    157    21 19    1              12        114
## 10    157    21 4     1              12        115
## #  with 35 more rows
…
#8.What else do you find interesting in the dataset? Show your exploratory analysis.

complete %>%
  group_by(Chick) %>%
  mutate(weightgain = (weight - weight[Time == 0]))

## # A tibble: 540 x 6
## # Groups:   Chick [45]
##    weight  Time Chick Diet  NumMeasures weightgain
##     <dbl> <dbl> <ord> <fct>       <int>      <dbl>
##  1     42     0 1     1              12          0
##  2     51     2 1     1              12          9
##  3     59     4 1     1              12         17
##  4     64     6 1     1              12         22
##  5     76     8 1     1              12         34
##  6     93    10 1     1              12         51
##  7    106    12 1     1              12         64
##  8    125    14 1     1              12         83
##  9    149    16 1     1              12        107
## 10    171    18 1     1              12        129
## #  with 530 more rows

complete %>%
  group_by(Time) %>%
  mutate(avgWeight = mean(weightgain))

## # A tibble: 540 x 7
## # Groups:   Time [12]
##    weight  Time Chick Diet  NumMeasures weightgain avgWeight
##     <dbl> <dbl> <ord> <fct>       <int>      <dbl>     <dbl>
##  1     42     0 1     1              12          0      0   
##  2     51     2 1     1              12          9      8.51
##  3     59     4 1     1              12         17     19.1 
##  4     64     6 1     1              12         22     33.8 
##  5     76     8 1     1              12         34     51.4 
##  6     93    10 1     1              12         51     69.0 
##  7    106    12 1     1              12         64     91.7 
##  8    125    14 1     1              12         83    105.  
##  9    149    16 1     1              12        107    128.  
## 10    171    18 1     1              12        129    151.  
## #  with 530 more rows
…
